…
    ## Warning: There was 1 warning in `mutate()`.
    ## ℹ In argument: `log_beta1beta2 = log(beta_tmin * beta_prcp)`.
    ## Caused by warning in `log()`:
    ## ! NaNs produced

    ## # A tibble: 5,000 × 5
    ##    r.squared `beta_(Intercept)` beta_tmin beta_prcp log_beta1beta2
    ##        <dbl>              <dbl>     <dbl>     <dbl>          <dbl>
    ##  1     0.898               8.50     0.972  0.00449           -5.44
    ##  2     0.928               7.99     1.02  -0.00702          NaN   
    ##  3     0.925               8.10     1.03  -0.00776          NaN   
    ##  4     0.931               8.18     1.01  -0.00991          NaN   
    ##  5     0.915               8.21     1.01  -0.00364          NaN   
    ##  6     0.918               7.96     1.01   0.000755          -7.18
    ##  7     0.922               7.99     1.02  -0.00300          NaN   
    ##  8     0.910               7.67     1.04   0.00124           -6.65
    ##  9     0.910               8.03     1.01   0.00199           -6.21
    ## 10     0.939               7.99     1.02  -0.00621          NaN   
    ## # ℹ 4,990 more rows
…
